Cat	Name	Plate Location	Rack Number	Formulation	Target	Pathway	Information	M.w.	CAS Number	DMSO (mg/mL)Max Solubility	DMSO (mM)Max Solubility	Water (mg/mL)Max Solubility	Water (mM)Max Solubility	URL	Formula	Form	Synonyms	SMILES	ALogP	HBA_Count	HBD_Count	RotatableBond
S1188	Anastrozole	f5	L3500-01	in 10mM DMSO	Aromatase	Endocrinology & Hormones	Anastrozole is a third-generation nonsteroidal selective aromatase inhibitor. It may offer greater selectivity compared with other aromatase inhibitors, being without any intrinsic endocrine effects and with no apparent effect on the synthesis of adrenal steroids.	293.37	120511-73-1	59	201.11	<1	NA	http://selleckchem.com/products/Anastrozole.html	C17H19N5	free base	ZD-1033	CC(C)(C#N)C1=CC(=CC(=C1)C[N]2C=NC=N2)C(C)(C)C#N	2.965	2	0	4
S1789	Tetrabenazine (Xenazine)	g9	L3500-01	in 10mM DMSO	Dopamine Receptor	Neuronal Signaling	Tetrabenazine(Nitoman, Xenazine) acts primarily as a reversible high-affinity inhibitor of mono-amine uptake into granular vesicles of presynaptic neurons by binding selectively to VMAT-2 Also blocks dopamine D2 receptors, but this affinity is 1,000-fold lower than its affinity for VMAT-2.	317.42	58-46-8	58	182.72	<1	NA	http://selleckchem.com/products/Tetrabenazine(Nitoman).html	C19H27NO3	free base	N/A	COC1=CC2=C(C=C1OC)C3CC(=O)C(CC(C)C)CN3CC2	3.365	3	0	4
S2896	ZM 323881 HCl	f7	L3500-02	in 10mM DMSO	VEGFR	Protein Tyrosine Kinase	ZM 323881 is a potent and selective VEGFR2 inhibitor with IC50 of <2 nM, almost no activity on VEGFR1, PDGFRβ, FGFR1, EGFR and ErbB2.	411.86	193000-39-4	10	24.28	<1	NA	http://selleckchem.com/products/zm-323881-hcl.html	C22H19ClFN3O2	Hydrochloride	N/A	Cl.CC1=CC(=C(NC2=C3C=CC(=CC3=NC=N2)OCC4=CC=CC=C4)C=C1O)F	5.876	3	2	5
S5476	Rolapitant	b3	L3500-03	in 10mM DMSO	NK1-receptor	GPCR	Rolapitant is a potent, selective and orally active neurokinin NK1 receptor antagonist.	500.48	552292-08-7	100	199.81	NA	NA	https://www.selleckchem.com/products/rolapitant.html	C25H26F6N2O2	NA	NA	CC(OCC1(CCC2(CCC(=O)N2)CN1)C3=CC=CC=C3)C4=CC(=CC(=C4)C(F)(F)F)C(F)(F)F	4.761	2	2	7
S5667	Fruquintinib	e3	L3500-03	in 10mM DMSO	VEGFRs	VEGFR	Fruquintinib is a highly potent and selective VEGFR 1/2/3 inhibitor.	393.39	1194506-26-7	6	15.25	<1	NA	https://www.selleckchem.com/products/fruquintinib.html	C21H19N3O5	NA	NA	CNC(=O)C1=C(C)OC2=CC(=CC=C12)OC3=C4C=C(OC)C(=CC4=NC=N3)OC	3.111	7	1	5
S5935	Alvimopan	b5	L3500-03	in 10mM DMSO	Opioid Receptor	Neuronal Signaling	Alvimopan (LY-246736) is a potent, relatively nonselective <b>opioid</b> antagonist with <b>Ki</b> values of 0.77, 4.4, and 40 nM for the μ, δ, and κ opioid receptors, respectively, displaying >100-fold selectivity over other aminergic G-protein-coupled receptors.	424.53	156053-89-3	85	200.22	1	2.36	http://www.selleckchem.com/products/alvimopan.html	C25H32N2O4	Free Base	LY 246736, ADL 8-2698	CC1CN(CCC1(C)C2=CC=CC(=C2)O)CC(CC3=CC=CC=C3)C(=O)NCC(O)=O	0.51	2	2	8
S7148	ML347	h7	L3500-03	in 10mM DMSO	TGF-beta/Smad,ALK	TGF-beta/Smad	ML347 is a selective BMP receptor inhibitor with IC50 of 32 nM for ALK2, >300-fold selectivity over ALK3. Also inhibits ALK1 activity with IC50 of 46 nM.	352.39	1062368-49-3	10	28.38	<1	NA	http://selleckchem.com/products/ml347.html	C22H16N4O	free base	LDN-193719	COC1=CC=C(C=C1)C2=C[N]3N=CC(=C3N=C2)C4=CC=CC5=C4C=CC=N5	3.309	4	0	3
S7208	Bisindolylmaleimide I (GF109203X)	b9	L3500-03	in 10mM DMSO	PKC	TGF-beta/Smad	Bisindolylmaleimide I (GF109203X) is a potent PKC inhibitor with IC50 of 20 nM, 17 nM, 16 nM, and 20 nM for PKCα, PKCβI, PKCβII, and PKCγ in cell-free assays, respectively, showing more than 3000-fold selectivity for PKC as compared to EGFR, PDGFR and insulin receptor.	412.48	133052-90-1	82	198.8	<1	NA	http://selleckchem.com/products/gf109203x.html	C25H24N4O2	free base	GO 6850 , Bisindolylmaleimide I	CN(C)CCC[N]1C=C(C2=CC=CC=C12)C3=C(C(=O)NC3=O)C4=C[NH]C5=CC=CC=C45	3.557	2	2	6
S7318	HTH-01-015	f11	L3500-03	in 10mM DMSO	AMPK	PI3K/Akt/mTOR	HTH-01-015 is a potent and selective NUAK1 inhibitor with IC50 of 100 nM, >100-fold selectivity over NUAK2.	468.55	1613724-42-7	58	123.79	<1	NA	http://selleckchem.com/products/hth-01-015.html	C26H28N8O	free base	N/A	CN1C(=O)C2=C(C=C3C=CC=CC3=C2)N(C)C4=NC(=NC(=C14)C)NC5=C[N](N=C5)C6CCNCC6	2.993	4	2	3
S7436	NH125	f3	L3500-04	in 10mM DMSO	CaMK	Neuronal Signaling	NH125 is a selective eEF-2 kinase inhibitor with IC50 of 60 nM, >125-fold selectivity over PKC, PKA, and CaMKII, and also a potent histidine kinase inhibitor.	524.56	278603-08-0	100	190.64	<1	NA	http://selleckchem.com/products/nh125.html	C27H45IN2	iodide	N/A	[I-].CCCCCCCCCCCCCCCC[N+]1=C(C)[N](CC2=CC=CC=C2)C=C1	6.032	0	0	17
S7651	SB225002	g6	L3500-04	in 10mM DMSO	CXCR	GPCR & G Protein	SB225002 is a potent, and selective CXCR2 antagonist with IC50 of 22 nM for inhibiting interleukin IL-8 binding to CXCR2, > 150-fold selectivity over the other 7-TMRs tested.	352.14	182498-32-4	70	198.78	<1	NA	http://selleckchem.com/products/sb225002.html	C13H10BrN3O4	free base	N/A	OC1=CC(=CC=C1NC(=O)NC2=C(Br)C=CC=C2)[N+]([O-])=O	2.923	1	3	3
S8005	SMI-4a	c11	L3500-04	in 10mM DMSO	Pim	JAK/STAT	SMI-4a is a potent inhibitor of?Pim1?with?IC50?of 17 nM, modestly potent to Pim-2, does not significantly inhibit any other serine/threonine- or tyrosine-kinases.	273.23	438190-29-5	55	201.3	<1	NA	http://selleckchem.com/products/smi-4a.html	C11H6F3NO2S	free base	TCS PIM-1 4a	FC(F)(F)C1=CC(=CC=C1)\C=C2/SC(=O)NC2=O	2.884	2	1	2
S8642	GSK'963	e9	L3500-05	in 10mM DMSO	NF-κB,TNF-alpha	NF-κB	GSK'963 is a chiral small-molecule inhibitor of RIP1 kinase with an IC50 of 29 nM in FP binding assays. It is >10 000-fold selective for RIP1 over 339 other kinases.	230.31	2049868-46-2	46	199.73	<1	NA	http://selleckchem.com/products/gsk963.html	C14H18N2O	free base	N/A	CC(C)(C)C(=O)N1N=CCC1C2=CC=CC=C2	2.545	2	0	2
S8746	H3B-5942	f11	L3500-05	in 10mM DMSO	Estrogen/progestogen	Endocrinology & Hormones	H3B-5942 is a selective and irreversible  estrogen receptor  covalent antagonist, inactivates both ERα WT and ERα mutation. The Ki values are 1 nM and 0.41 nM, respectively.	494.63	2052128-15-9	99	200.15	<1	NA	http://www.selleck.cn/products/h3b-5942.html	C31H34N4O2
	free base	N/A	CC\C(C1=CC=CC=C1)=C(C2=CC=C(OCCNC\C=C\C(=O)N(C)C)C=C2)/C3=CC4=C([NH]N=C4)C=C3	5.374	3	2	11
S8822	Ligandrol (LGD-4033, VK-5211)	f2	L3500-06	in 10mM DMSO	Androgen Receptor	Endocrinology & Hormones	Ligandrol (LGD-4033, VK-5211) is a novel nonsteroidal, oral selective <b>androgen receptor</b> modulator with high affinity (Ki of ∼1 nM) and selectivity.	338.25	1165910-22-4	68	201.03	<1	NA	http://www.selleck.cn/products/lgd-4033-vk-5211.html	C14H12F6N2O
	Free Base	N/A	OC(C1CCCN1C2=CC(=C(C=C2)C#N)C(F)(F)F)C(F)(F)F	3.799	0	1	4
S6717	TCS-OX2-29	h3	L3500-06	in 10mM DMSO	OX Receptor	GPCR & G Protein	TCX-OX2-29 is a <b>OX2R</b> antagonist (pKi = 7.5) that exhibits >250-fold selectivity for hOX2R compared with hOX1R (IC50s = 40 nM and >10,000 nM, respectively).	397.51	372523-75-6	87	218.86	<1	NA	http://www.selleck.cn/products/tcs-ox2-29.html	C23H31N3O3
	Free Base	N/A	COC1=CC2=C(CN(CC2)C(=O)C(NCC3=CC=NC=C3)C(C)(C)C)C=C1OC	2.709	4	1	7
S8951	TED-347	b5	L3500-06	in 10mM DMSO	Hippo pathway	Stem Cells &  Wnt	TED-347 is a potent, irreversible, covalent and allosteric inhibitor of <b>the TEAD⋅Yap protein-protein interaction</b>. TED-347 inhibits TEAD4⋅Yap1 protein-protein interaction with an apparent EC50 of 5.9 μM.	313.7	2378626-29-8	69	219.96	˂1	NA	http://www.selleckchem.com/products/ted-347.html	C15H11ClF3NO	Free Base	N/A	FC(F)(F)C1=CC=CC(=C1)NC2=CC=CC=C2C(=O)CCl	4.594	1	1	5
S1023	Erlotinib HCl (OSI-744)	a2	L3500-08	in 2mM DMSO	Autophagy,EGFR	Protein Tyrosine Kinase	Erlotinib HCl (OSI-744) is an EGFR inhibitor with IC50 of 2 nM in cell-free assays, >1000-fold more sensitive for EGFR than human c-Src or v-Abl.	429.9	183319-69-9	4	9.3	<1	NA	http://selleckchem.com/products/Erlotinib-Hydrochloride.html	C22H24ClN3O4	Hydrochloride	(CP358774, NSC 718781) HCl	Cl.COCCOC1=C(OCCOC)C=C2C(=NC=NC2=C1)NC3=CC=CC(=C3)C#C	4.691	6	1	10
S1011	Afatinib (BIBW2992)	c2	L3500-01	in 10mM DMSO	EGFR,HER2	Protein Tyrosine Kinase	Afatinib (BIBW2992) inhibits EGFR/ErbB irreversibly in vitro with IC50 of 0.5, 0.4, 10, 14, 1 nM for EGFRwt, EGFR L858R , EGFR L858R/T790M ErbB2 (HER2) and ErbB4 (HER4), respectively.	485.94	439081-18-2	97	199.61	<1	NA	http://selleckchem.com/products/BIBW2992.html	C24H25ClFN5O3	Free Base	N/A	CN(C)C/C=C/C(=O)NC1=CC2=C(NC3=CC=C(F)C(=C3)Cl)N=CN=C2C=C1OC4CCOC4	3.917	5	2	8
S1066	SL-327	a3	L3500-01	in 10mM DMSO	MEK	MAPK	SL327 is a selective inhibitor for MEK1/2 with IC50 of 0.18 μM/ 0.22 μM, no activity towards Erk1, MKK3, MKK4, c-JUN, PKC, PKA, or CamKIIcapable of transport through the blood-brain barrier.	335.35	305350-87-2	67	199.79	<1	NA	http://selleckchem.com/products/SL327.html	C16H12F3N3S	free base	N/A	NC(\SC1=CC=C(N)C=C1)=C(C#N)/C2=C(C=CC=C2)C(F)(F)F	3.705	0	2	4
S1067	SB431542	b3	L3500-01	in 10mM DMSO	TGF-beta/Smad	TGF-beta/Smad	SB431542 is a potent and selective inhibitor of ALK5 with IC50 of 94 nM in a cell-free assay, 100-fold more selective for ALK5 than p38 MAPK and other kinases.	384.39	301836-41-9	76	197.72	<1	NA	http://selleckchem.com/products/SB-431542.html	C22H16N4O3	free base	N/A	NC(=O)C1=CC=C(C=C1)C2=NC(=C([NH]2)C3=NC=CC=C3)C4=CC5=C(OCO5)C=C4	3.447	5	2	4
S1169	TGX-221	a5	L3500-01	in 10mM DMSO	PI3K	PI3K/Akt/mTOR	TGX-221 is a p110β-specific inhibitor with IC50 of 5 nM in a cell-free assay, 1000-fold more selective for p110β than p110α.	364.44	663619-89-4	12	32.93	<1	NA	http://selleckchem.com/products/TGX-221.html	C21H24N4O2	free base	N/A	CC(NC1=CC=CC=C1)C2=CC(=CN3C(=O)C=C(N=C23)N4CCOCC4)C	2.373	3	1	4
S1392	Pelitinib (EKB-569)	b7	L3500-01	in 10mM DMSO	EGFR	Protein Tyrosine Kinase	Pelitinib (EKB-569) is a potent irreversible EGFR inhibitor with IC50 of 38.5 nM. Phase2.	467.92	257933-82-7	13	27.78	<1	NA	http://selleckchem.com/products/Pelitinib.html	C24H23ClFN5O2	free base	N/A	CCOC1=C(NC(=O)\C=C\CN(C)C)C=C2C(=C1)N=CC(=C2NC3=CC(=C(F)C=C3)Cl)C#N	4.455	3	2	8
S1577	Tie2 kinase inhibitor	d9	L3500-01	in 10mM DMSO	Tie-2	Protein Tyrosine Kinase	Tie2 kinase inhibitor is an optimized compound of SB-203580, selective to Tie2 with IC50 of 0.25 μM, 200-fold more potent than p38.	439.53	948557-43-5	35	79.63	<1	NA	http://selleckchem.com/products/Tie2-kinase-inhibitor.html	C26H21N3O2S	free base	N/A	COC1=CC2=C(C=C1)C=C(C=C2)C3=C(N=C([NH]3)C4=CC=C(C=C4)[S](C)=O)C5=CC=NC=C5	4.57	4	1	5
S2730	Crenolanib (CP-868596)	a4	L3500-02	in 10mM DMSO	PDGFR	Protein Tyrosine Kinase	Crenolanib (CP-868596) is a potent and selective inhibitor of PDGFRα/β with Kd of 2.1 nM/3.2 nM in CHO cells, also potently inhibits FLT3, sensitive to D842V mutation not V561D mutation, >100-fold more selective for PDGFR than c-Kit, VEGFR-2, TIE-2, FGFR-2, EGFR, erbB2, and Src.	443.54	670220-88-9	88	198.4	<1	NA	http://selleckchem.com/products/crenolanib-cp-868596.html	C26H29N5O2	free base	ARO 002	CC1(COC1)COC2=CC3=C(C=C2)[N](C=N3)C4=NC5=C(C=CC=C5C=C4)N6CCC(N)CC6	3.192	4	1	5
S5069	Dabrafenib Mesylate	b2	L3500-03	in 10mM DMSO	Raf	MAPK	Dabrafenib Mesylate is the mesylate salt form of dabrafenib, an orally bioavailable inhibitor of B-raf (BRAF) protein with IC50s of 0.8 nM, 3.2 nM and 5 nM for B-Raf (V600E), B-Raf (WT) and C-Raf, respectively.	615.67	1195768-06-9	100	162.42	<1	NA	http://selleckchem.com/products/dabrafenib-mesylate.html	C24H24F3N5O5S3	mesylate	GSK2118436 Mesylate	CC(C)(C)C1=NC(=C(S1)C2=CC=NC(=N2)N)C3=C(F)C(=CC=C3)N[S](=O)(=O)C4=C(F)C=CC=C4F.C[S](O)(=O)=O	4.963	5	2	6
S1108	TAE684 (NVP-TAE684)	b2	L3500-08	in 2mM DMSO	ALK	Protein Tyrosine Kinase	TAE684 (NVP-TAE684) is a potent and selective ALK inhibitor with IC50 of 3 nM in a cell-free assay, 100-fold more sensitive for ALK than InsR.	614.2	761439-42-3	3	4.88	<1	NA	http://selleckchem.com/products/NVP-TAE684.html	C30H40ClN7O3S	Free Base	N/A	COC1=C(NC2=NC=C(Cl)C(=N2)NC3=C(C=CC=C3)[S](=O)(=O)C(C)C)C=CC(=C1)N4CCC(CC4)N5CCN(C)CC5	5.342	5	2	9
S1093	GSK1904529A	f3	L3500-01	in 10mM DMSO	IGF-1R	Protein Tyrosine Kinase	GSK1904529A is a selective inhibitor of IGF-1R and IR with IC50 of 27 nM and 25 nM in cell-free assays, >100-fold more selective for IGF-1R/InsR than Akt1/2, Aurora A/B,B-Raf, CDK2, EGFR etc.	851.96	1089283-49-7	124	145.55	<1	NA	http://selleckchem.com/products/GSK1904529A.html	C44H47F2N9O5S	free base	GSK 4529	CCC1=CC(=C(OC)C=C1N2CCC(CC2)N3CCN(CC3)[S](C)(=O)=O)NC4=NC(=CC=N4)C5=C(N=C6C=CC=C[N]56)C7=CC(=C(OC)C=C7)C(=O)NC8=C(F)C=CC=C8F	6.571	8	2	12
S1264	PD173074	d6	L3500-01	in 10mM DMSO	FGFR,VEGFR	Angiogenesis	PD173074 is a potent FGFR1 inhibitor with IC50 of ~25 nM and also inhibits VEGFR2 with IC50 of 100-200 nM in cell-free assays, ~1000-fold selective for FGFR1 than PDGFR and c-Src.	523.67	219580-11-7	100	190.96	<1	NA	http://selleckchem.com/products/PD-173074.html	C28H41N7O3	free base	N/A	CCN(CC)CCCCNC1=NC=C2C=C(C(=NC2=N1)NC(=O)NC(C)(C)C)C3=CC(=CC(=C3)OC)OC	4.313	6	3	13
S1275	BX-912	h6	L3500-01	in 10mM DMSO	PDK	PI3K/Akt/mTOR	BX912 is a potent and specific PDK1 inhibitor with IC50 of 12 nM, 9- and 105- fold greater selectivity for PDK1 than PKA and PKC in cell-free assays, respectively. In comparison to GSK3β, selectivity for PDK1 is 600-fold.	471.35	702674-56-4	94	199.43	<1	NA	http://selleckchem.com/products/bx-912.html	C20H23BrN8O	free base	N/A	BrC1=CN=C(NC2=CC(=CC=C2)NC(=O)N3CCCC3)N=C1NCCC4=CN=C[NH]4	2.798	4	4	7
S1456	Zibotentan (ZD4054)	e7	L3500-01	in 10mM DMSO	Endothelin Receptor	GPCR & G Protein	Zibotentan (ZD4054) is a specific Endothelin (ET)A antagonist with IC50 of 21 nM, exhibiting no activity at ETB. Phase 3.	424.43	186497-07-4	24	56.55	<1	NA	http://selleckchem.com/products/Zibotentan(ZD4054).html	C19H16N6O4S	free base	N/A	COC1=NC(=CN=C1N[S](=O)(=O)C2=CC=CN=C2C3=CC=C(C=C3)C4=NN=CO4)C	1.456	9	1	6
S2216	Mubritinib (TAK 165)	a11	L3500-01	in 10mM DMSO	HER2	Protein Tyrosine Kinase	Mubritinib (TAK-165) is a potent inhibitor of HER2/ErbB2 with IC50 of 6 nM in BT-474 cell no activity to EGFR, FGFR, PDGFR, JAK1, Src and Blk in BT-474 cell line. Phase 1.	468.47	366017-09-6	13	27.75	<1	NA	http://selleckchem.com/products/Mubritinib-TAK-165.html	C25H23F3N4O2	free base	N/A	FC(F)(F)C1=CC=C(\C=C\C2=NC(=CO2)COC3=CC=C(CCCC[N]4C=CN=N4)C=C3)C=C1	5.844	5	0	11
S2624	OSI-027	a2	L3500-02	in 10mM DMSO	mTOR	PI3K/Akt/mTOR	OSI-027 is a selective and potent dual inhibitor of mTORC1 and mTORC2 with IC50 of 22 nM and 65 nM in cell-free assays, and more than 100-fold selectivity observed for mTOR than PI3Kα, PI3Kβ, PI3Kγ or DNA-PK. Phase 1.	406.44	936890-98-1	18	44.29	<1	NA	http://selleckchem.com/products/OSI027.html	C21H22N6O3	free base	ASP4786	COC1=CC=CC2=C1[NH]C(=C2)C3=C4[N](N=CN=C4N)C(=N3)C5CCC(CC5)C(O)=O	3.376	5	2	4
S2808	Ipatasertib (GDC-0068)	h5	L3500-02	in 10mM DMSO	Akt	PI3K/Akt/mTOR	Ipatasertib (GDC-0068) is a highly selective pan-Akt inhibitor targeting Akt1/2/3 with IC50 of 5 nM/18 nM/8 nM in cell-free assays, 620-fold selectivity over PKA. Phase 2.	458	1001264-89-6	92	200.87	<1	NA	http://selleckchem.com/products/gdc-0068.html	C24H32ClN5O2	free base	RG7440	CC(C)NCC(C(=O)N1CCN(CC1)C2=C3C(C)CC(O)C3=NC=N2)C4=CC=C(Cl)C=C4	3.102	3	2	6
S2875	Prucalopride	c7	L3500-02	in 10mM DMSO	5-HT Receptor	Neuronal Signaling	Prucalopride is a selective, high affinity 5-HT receptor agonist for 5-HT4A and 5-HT4B receptor with Ki of 2.5 nM and 8 nM, respectively, exhibits >290-fold selectivity against other 5-HT receptor subtypes.	367.87	179474-81-8	60	163.1	<1	NA	http://selleckchem.com/products/prucalopride.html	C18H26ClN3O3	Free Base	R-93877	COCCCN1CCC(CC1)NC(=O)C2=CC(=C(N)C3=C2OCC3)Cl	1.056	3	2	6
S2891	GW441756	d7	L3500-02	in 10mM DMSO	Trk receptor	Protein Tyrosine Kinase	GW441756 is a potent, selective inhibitor of TrkA with IC50 of 2 nM, with very little activity to c-Raf1 and CDK2.	275.3	504433-23-2	25	90.81	<1	NA	http://selleckchem.com/products/gw-441756.html	C17H13N3O	free base	N/A	C[N]1C=C(C=C2C(=O)NC3=CC=CN=C23)C4=C1C=CC=C4	2.508	2	1	1
S2903	Lumiracoxib	h7	L3500-02	in 10mM DMSO	COX	Neuronal Signaling	Lumiracoxib is a novel, selective COX-2 inhibitor with Ki of  0.06 μM. It also inhibits COX1 with Ki of 3 μM.	293.72	220991-20-8	59	200.87	<1	NA	http://selleckchem.com/products/lumiracoxib-cox-189.html	C15H13ClFNO2	free base	COX-189	CC1=CC=C(NC2=C(Cl)C=CC=C2F)C(=C1)CC(O)=O	4.4	1	1	4
S2924	CHIR-99021 (CT99021) HCl	d8	L3500-02	in 10mM DMSO	GSK-3	PI3K/Akt/mTOR	CHIR-99021 HCl (CT99021) is hydrochloride of CHIR-99021, which is a GSK-3α/β inhibitor with IC50 of 10 nM/6.7 nM CHIR-99021 shows greater than 500-fold selectivity for GSK-3 versus its closest homologs Cdc2 and ERK2.	501.8	1797989-42-4	93	185.33	<1	NA	http://selleckchem.com/products/chir-99021-ct99021-hcl.html	C22H19Cl3N8	Hydrochloride	N/A	Cl.CC1=C[NH]C(=N1)C2=CN=C(NCCNC3=NC=C(C=C3)C#N)N=C2C4=CC=C(Cl)C=C4Cl	4.858	4	3	7
S3060	Medetomidine HCl	c9	L3500-02	in 10mM DMSO	Adrenergic Receptor	Neuronal Signaling	Medetomidine is a selective α2-adrenoceptor agonist, with Ki of 1.08 nM, exhibts 1620-fold selectivity over α1-adrenoceptor.	236.74	86347-15-1	12	50.69	47	198.53	http://selleckchem.com/products/medetomidine-hcl.html	C13H17ClN2	HCl	N/A	Cl.CC(C1=C[NH]C=N1)C2=C(C)C(=CC=C2)C	3.515	1	1	2
S4102	Eprosartan Mesylate	c10	L3500-02	in 10mM DMSO	RAAS	Endocrinology & Hormones	Eprosartan is a nonpeptide angiotensin II receptor antagonist, [3H]-eprosartan binds to the AT1 receptor with KD of 0.83 nM in rat vascular smooth muscle cells.	520.62	144143-96-4	104	199.76	<1	NA	http://selleckchem.com/products/eprosartan-mesylate.html	C24H28N2O7S2	Mesylate	N/A	CCCCC1=NC=C(\C=C(CC2=CC=CS2)\C(O)=O)[N]1CC3=CC=C(C=C3)C(O)=O.C[S](O)(=O)=O	4.418	3	0	10
S4901	JNK-IN-8	d11	L3500-02	in 10mM DMSO	JNK	MAPK	JNK-IN-8 is the first irreversible JNK inhibitor for JNK1, JNK2 and JNK3 with IC50 of 4.7 nM, 18.7 nM and 1 nM, >10-fold selectivity against MNK2, Fms and no inhibition to c-Kit, Met, PDGFRβin A375 cell line.	507.59	1410880-22-6	100	197.01	<1	NA	http://selleckchem.com/products/jnk-in-8.html	C29H29N7O2	free base	N/A	CN(C)C/C=C/C(=O)NC1=CC(=CC=C1)C(=O)NC2=CC=C(NC3=NC=CC(=N3)C4=CC=CN=C4)C(=C2)C	3.997	5	3	9
S5926	Pitolisant hydrochloride	h4	L3500-03	in 10mM DMSO	Histamine Receptor	Neuronal Signaling	Pitolisant acts as a high-affinity competitive antagonist (Ki=0.16 nM) and as an inverse agonist (EC50=1.5 nM) at the <b>human histamine H3 receptor subtype</b>.	332.31	903576-44-3	66	198.61	66	198.61	http://www.selleckchem.com/products/pitolisant-hydrochloride.html	C17H27Cl2NO	hydrochloride	Tiprolisant hydrochloride, BF-2649 HCl	Cl.ClC1=CC=C(CCCOCCCN2CCCCC2)C=C1	4.576	1	0	8
S7179	BAF312 (Siponimod)	f8	L3500-03	in 10mM DMSO	S1P Receptor	GPCR & G Protein	BAF312 (Siponimod) is a next-generation S1P receptor modulator, selective for S1P1 and S1P5 receptors with EC50 of 0.39 nM and 0.98 nM, exhibits >1000-fold selectivity over S1P2, S1P3 and S1P4 receptors. Phase 3.	516.6	1230487-00-9	100	193.57	<1	NA	http://selleckchem.com/products/baf312-siponimod.html	C29H35F3N2O3	free base	N/A	CCC1=CC(=CC=C1CN2CC(C2)C(O)=O)\C(C)=N\OCC3=CC=C(C4CCCCC4)C(=C3)C(F)(F)F	3.834	3	0	10
S7263	AZD1981	d10	L3500-03	in 10mM DMSO	GPR	Endocrinology & Hormones	AZD1981 is a potent, selective CRTh2 (DP2) receptor antagonist with IC50 of 4 nM, showing >1000-fold selectivity over more than 340 other enzymes and receptors, including DP1. Phase 2.	388.87	802904-66-1	11	28.29	<1	NA	http://selleckchem.com/products/azd1981.html	C19H17ClN2O3S	free base	N/A	CC(=O)NC1=C2C(=CC=C1)[N](CC(O)=O)C(=C2SC3=CC=C(Cl)C=C3)C	3.859	2	1	5
S7499	ESI-09	d4	L3500-04	in 10mM DMSO	cAMP	GPCR & G Protein	ESI-09 is a specific exchange protein directly activated by cAMP (EPAC) inhibitor with IC50 of 3.2 μM and 1.4 μM for EPAC1 and EPAC2, respectively, >100-fold selectivity over PKA.	330.77	263707-16-0	66	199.53	<1	NA	http://selleckchem.com/products/esi-09.html	C16H15ClN4O2	free base	N/A	CC(C)(C)C1=CC(=NO1)C(=O)/C(=N/NC2=CC=CC(=C2)Cl)C#N	4.569	4	1	5
S7501	HO-3867	f4	L3500-04	in 10mM DMSO	STAT	JAK/STAT	HO-3867, an analog of curcumin, is a selective STAT3 inhibitor that inhibits its phosphorylation, transcription, and DNA binding without affecting the expression of other active STATs.	464.55	1172133-28-6	13	27.98	<1	NA	http://selleckchem.com/products/ho-3867.html	C28H30F2N2O2	free base	N/A	CC1(C)C=C(CN2C\C(=C/C3=CC=C(F)C=C3)C(=O)C(/C2)=C/C4=CC=C(F)C=C4)C(C)(C)N1O	5.209	1	0	4
S7714	FIIN-2	e7	L3500-04	in 10mM DMSO	FGFR	Protein Tyrosine Kinase	FIIN-2 is an irreversible, pan-FGFR inhibitor with IC50 of 3.09 nM, 4.3 nM, 27 nM and 45.3 nM for FGFR1/2/3/4, respectively.	634.73	1633044-56-0	69	108.71	<1	NA	http://selleckchem.com/products/fiin-2.html	C35H38N8O4	free base	N/A	COC1=CC(=CC(=C1)OC)N2CC3=CN=C(NC4=CC=C(C=C4)N5CCN(C)CC5)N=C3N(CC6=CC=C(NC(=O)C=C)C=C6)C2=O	5.007	6	2	10
S7725	BLZ945	g7	L3500-04	in 10mM DMSO	CSF-1R	Protein Tyrosine Kinase	BLZ945 is an orally active, potent and selective CSF-1R inhibitor with IC50 of 1 nM, >1000-fold selective against its closest receptor tyrosine kinase homologs.	398.48	953769-46-5	79	198.25	<1	NA	http://selleckchem.com/products/blz945.html	C20H22N4O3S	free base	N/A	CNC(=O)C1=NC=CC(=C1)OC2=CC3=C(C=C2)N=C(NC4CCCCC4O)S3	3.201	4	3	5
S7959	SIS3 HCl	e10	L3500-04	in 10mM DMSO	TGF-beta/Smad	TGF-beta/Smad	SIS3, a novel specific inhibitor of Smad3, inhibits TGF-β and activin signaling by suppressing Smad3 phosphorylation without affecting the MAPK/p38, ERK, or PI3-kinase signaling pathways.	489.99	521984-48-5	97	197.96	<1	NA	http://selleckchem.com/products/sis3.html	C28H28ClN3O3	hydrochloride	N/A	Cl.COC1=CC2=C(CN(CC2)C(=O)/C=C/C3=C([N](C)C4=NC=CC=C34)C5=CC=CC=C5)C=C1OC	5.076	4	0	5
S8044	BMS-345541	e2	L3500-05	in 10mM DMSO	IκB/IKK	NF-κB	BMS-345541 is a highly selective inhibitor of the catalytic subunits of IKK-2 and IKK-1 with IC50 of 0.3 μM and 4 μM in cell-free assays, respectively.	255.32	445430-58-0	9	35.25	<1	NA	http://selleckchem.com/products/bms-345541.html	C14H17N5	free base	N/A	CC1=CC=C2N=C(NCCN)C3=NC=C(C)[N]3C2=C1	1.472	2	2	3
S8327	KYA1797K	b5	L3500-05	in 10mM DMSO	Wnt/beta-catenin	Stem Cells &  Wnt	KYA1797K is a highly potent and selective Wnt/β-catenin inhibitor with IC50 of 0.75 ?M (TOPflash assay).	442.51	1956356-56-1	29	65.54	29	65.54	http://selleckchem.com/products/kya1797k.html	C17H11KN2O6S2	potassium salt	N/A	[O-][N+](=O)C1=CC=C(C=C1)C2=CC=C(O2)\C=C3/SC(=S)N(CCC(=O)O[K])C3=O	3.967	4	0	7
S8534	LY3214996	d7	L3500-05	in 10mM DMSO	ERK	MAPK	LY3214996 is a selective and novel ERK1/2 inhibitor with IC50 of 5 nM for both enzymes in biochemical assays. It potently inhibits cellular phospho-RSK1 in BRAF and RAS mutant cancer cell lines.	453.56	1951483-29-6	27	59.53	<1	NA	http://selleckchem.com/products/ly3214996.html	C22H27N7O2S	free base	N/A	C[N]1N=CC=C1NC2=NC(=CC=N2)C3=CC4=C(S3)C(C)(C)N(CCN5CCOCC5)C4=O	2.664	5	1	6
S8637	Ipragliflozin (ASP1941)	b9	L3500-05	in 10mM DMSO	SGLT	GPCR & G Protein	Ipragliflozin (ASP1941) is a highly selective sodium-glucose cotransporter 2 (SGLT2) inhibitor with an IC50 value of 7.4 nM for hSGLT2 and a 254-fold selectivity versus SGLT1.	404.45	761423-87-4	80	197.8	<1	NA	http://selleckchem.com/products/ipragliflozin-asp-1941.html	C21H21FO5S	free base	N/A	OCC1OC(C(O)C(O)C1O)C2=CC(=C(F)C=C2)CC3=CC4=C(S3)C=CC=C4	2.35	1	4	4
S8676	Glumetinib	f10	L3500-05	in 10mM DMSO	c-Met	Protein Tyrosine Kinase	Glumetinib (SCC244) is a potent and highly selective  c-Met  inhibitor with an IC50 of 0.42 ± 0.02 nmol/L. Glumetinib has greater than 2,400-fold selectivity for c-Met over those 312 kinases evaluated, including the c-Met family member RON and highly homologous kinases Axl, Mer, and TyrO3.	459.48	1642581-63-2	11	23.94	<1	NA	http://www.selleck.cn/products/glumetinib.html	C21H17N9O2S
	free base	N/A	C[N]1C=C(C=N1)C2=C[N]3C(=NC=C3[S](=O)(=O)[N]4N=CC5=NC=C(C=C45)C6=C[N](C)N=C6)C=C2	1.725	7	0	4
S8680	AZD1390	h10	L3500-05	in 10mM DMSO	ATM/ATR	PI3K/Akt/mTOR	AZD1390 is a first-in-class orally available and CNS penetrant ATM inhibitor with an IC50 of 0.78 nM in cells and >10,000-fold selectivity over closely related members of the PIKK family of enzymes and excellent selectivity across a broad panel of kinases.	477.57	2089288-03-7	14	29.32	<1	NA	http://selleckchem.com/products/azd1390.html	C27H32FN5O2	free base	N/A	CC(C)N1C(=O)N(C)C2=C1C3=CC(=C(F)C=C3N=C2)C4=CC=C(OCCCN5CCCCC5)N=C4	4.231	4	0	7
S8684	Selective JAK3 inhibitor 1	a11	L3500-05	in 10mM DMSO	JAK	JAK/STAT	Selective JAK3 inhibitor 1 is an irreversible <b>JAK3</b> inhibitor with Ki values of 0.07 nM, 320 nM, 740 nM for JAK3, JAK1 and JAK2 respectively. It is also selective over the other kinases possessing a cysteine in the same region as JAK3, such as BMX, EGFR, ITK, and BTK.	350.37	1443235-95-7	70	199.79	<1	NA	http://www.selleck.cn/products/selective-jak3-inhibitor-1.html	C19H18N4O3
	Free Base	N/A	CCOC(=O)C1=C[NH]C2=C1C(=NC=N2)C3=CC(=CC=C3)NC(=O)C(C)=C	2.959	5	2	6
S8777	Evobrutinib	a2	L3500-06	in 10mM DMSO	BTK	Protein Tyrosine Kinase	Evobrutinib is a highly selective <b>BTK</b> inhibitor with an IC50 of 37.9 nM. It has potential anti-neoplastic activity.	429.51	1415823-73-2	86	200.23	<1	NA	http://www.selleckchem.com/products/evobrutinib.html	C25H27N5O2	Free Base	M-2951, MSC-2364447C	NC1=C(C(=NC=N1)NCC2CCN(CC2)C(=O)C=C)C3=CC=C(OC4=CC=CC=C4)C=C3	3.916	4	2	7
S6658	ETC-206 (AUM 001)	g4	L3500-06	in 10mM DMSO	MNK	MAPK	ETC-206 is an orally available highly selective small-molecule <b>MNK 1/2</b> inhibitor with IC50s of 64 nM and 86 nM, respectively.	408.45	1464151-33-4	82	200.76	<1	NA	http://www.selleck.cn/products/etc-206.html	C25H20N4O2
	Free Base	ETC-1907206	O=C(N1CCOCC1)C2=CC=C(C=C2)C3=C[N]4C(=NC=C4C5=CC=C(C=C5)C#N)C=C3	3.016	3	0	3
S6001	pomaglumetad (LY404039)	c3	L3500-08	in 2mM DMSO	GluR	Neuronal Signaling	LY404039 is a potent agonist of recombinant human mGlu2/mGlu3 receptors with Ki of 149 nM/92 nM, shows >100-fold selectivity over ionotropic glutamate receptors, glutamate transporters, and other receptors. Phase 3.	235.22	635318-11-5	1	4.25	<1	NA	http://selleckchem.com/products/LY2140023(LY404039).html	C7H9NO6S	Free Base	N/A	NC1(C[S](=O)(=O)C2C(C12)C(O)=O)C(O)=O	-4.682	4	1	2
S8012	Otenabant (CP-945598) HCl	e4	L3500-08	in 2mM DMSO	Cannabinoid Receptor	GPCR & G Protein	Otenabant (CP-945598) HCl is a potent and selective cannabinoid receptor CB1 antagonist with Ki of 0.7 nM, exhibits 10,000-fold greater selectivity against human CB2 receptor. Phase 1.	546.88	686347-12-6	5	9.14	<1	NA	http://selleckchem.com/products/cp-945598-hcl.html	C25H26Cl3N7O	Hydrochloride	Otenabant	Cl.CCNC1(CCN(CC1)C2=NC=NC3=C2N=C([N]3C4=CC=C(Cl)C=C4)C5=CC=CC=C5Cl)C(N)=O	0	0	0	0
